<svg width="1400" height="82" viewBox="0 0 1400 82" fill="none" xmlns="http://www.w3.org/2000/svg">
<path fill-rule="evenodd" clip-rule="evenodd" d="M0.000339031 -0.00020504H1401L699 81.9998L0.000339031 -0.00020504Z" fill="white"/>
</svg>
